EDA of text
…
## `summarise()` ungrouping output (override with `.groups` argument)

## Joining, by = "image"

frequency <- frequency %>% 
  select(image, word, freq) %>% 
  spread(image, freq) %>%
  arrange(0, 1)

frequency

## # A tibble: 603 x 3
##    word           `0`        `1`
##    <chr>        <dbl>      <dbl>
##  1 abdomin  0.0159     0.0240   
##  2 abnorm   0.00869    0.00353  
##  3 abras    0.00220    0.00466  
##  4 abscess  0.0000797  0.0000245
##  5 absenc   0.0000266 NA        
##  6 abus     0.00135    0.000417 
##  7 access   0.0000266 NA        
##  8 accid    0.0140     0.0243   
##  9 accident 0.0000664  0.0000491
## 10 ach      0.0115     0.0509   
## # ... with 593 more rows
…
word_ratios <- text_df  %>%
  
  count(word, image) %>%
  group_by(word) %>%
  filter(sum(n) >= 10) %>%
  ungroup() %>%
  spread(image, n, fill = 0) %>%
  mutate_if(is.numeric, list(~(. + 1) / (sum(.) + 1))) %>%
  mutate(logratio = log(`0` /`1`)) %>%
  arrange(desc(logratio))
word_ratios %>% 
  arrange(abs(logratio))

## # A tibble: 418 x 4
##    word            `0`      `1`  logratio
##    <chr>         <dbl>    <dbl>     <dbl>
##  1 trunk      0.000468 0.000469 -0.000949
##  2 perspir    0.000147 0.000148 -0.00572 
##  3 sweat      0.000147 0.000148 -0.00572 
##  4 heartbeat  0.000522 0.000518  0.00718 
##  5 asthma     0.00297  0.00293   0.0117  
##  6 convuls    0.00288  0.00291  -0.0119  
##  7 nec        0.00165  0.00168  -0.0192  
##  8 regurgit   0.000120 0.000123 -0.0241  
##  9 spit       0.000120 0.000123 -0.0241  
## 10 hematemesi 0.000227 0.000222  0.0241  
## # ... with 408 more rows
…
## `summarise()` ungrouping output (override with `.groups` argument)

## Joining, by = "image"

frequency <- frequency %>% 
  select(image, word, freq) %>% 
  spread(image, freq) %>%
  arrange(0, 1)

frequency

## # A tibble: 672 x 3
##    word           `0`        `1`
##    <chr>        <dbl>      <dbl>
##  1 100      0.0000262 NA        
##  2 2       NA          0.0000362
##  3 200      0.0000262 NA        
##  4 239      0.0000262 NA        
##  5 3       NA          0.0000362
##  6 66       0.0000262  0.0000725
##  7 abandon  0.0000524 NA        
##  8 abn      0.000131   0.0000362
##  9 abus     0.00338    0.00123  
## 10 ac       0.000891   0.00134  
## # ... with 662 more rows
…
word_ratios <- text_df  %>%
  
  count(word, image) %>%
  group_by(word) %>%
  filter(sum(n) >= 10) %>%
  ungroup() %>%
  spread(image, n, fill = 0) %>%
  mutate_if(is.numeric, list(~(. + 1) / (sum(.) + 1))) %>%
  mutate(logratio = log(`0` /`1`)) %>%
  arrange(desc(logratio))
word_ratios %>% 
  arrange(abs(logratio))

## # A tibble: 290 x 4
##    word         `0`      `1` logratio
##    <chr>      <dbl>    <dbl>    <dbl>
##  1 cumul   0.000293 0.000294 -0.00242
##  2 motion  0.000293 0.000294 -0.00242
##  3 repetit 0.000293 0.000294 -0.00242
##  4 trauma  0.000293 0.000294 -0.00242
##  5 chair   0.00125  0.00125   0.00292
##  6 subseq  0.00896  0.00893   0.00318
##  7 strikng 0.00893  0.00890   0.00432
##  8 pssngr  0.00267  0.00265   0.00763
##  9 motor   0.00115  0.00118  -0.0254 
## 10 blunt   0.000213 0.000221 -0.0332 
## # ... with 280 more rows
…
